…
The range of *number of listing* goes from 1 to 153 but the strict
majority of hosts only own 1 listing in Paris intramuros. Indeed, 40350
out of the 43472 different host have only 1 listing (93%). 2450 hosts
(5.6%) have 2 listings. The 2% remaining are multilisting owners.

Who are this owner that have several accommodations ?

``` r
head(L2%>%
  group_by(host_id,host_name)%>%
  summarise(numacommodation=n())%>%
  dplyr::arrange(desc(numacommodation)),50)
```

    ## # A tibble: 50 x 3
    ## # Groups:   host_id [50]
    ##     host_id host_name         numacommodation
    ##       <int> <fct>                       <int>
    ##  1  2288803 Fabien                        153
    ##  2  2667370 Parisian Home                 137
    ##  3 12984381 Olivier                        89
    ##  4  3972699 Hanane                         78
    ##  5 21630783 Pierre                         64
    ##  6 39922748 Clara                          64
    ##  7  3943828 Caroline                       62
    ##  8   789620 Charlotte                      56
    ##  9 11593703 Rudy And Benjamin              56
    ## 10   152242 Delphine                       53
    ## # ... with 40 more rows
…
